qacr::stats
…
You can pass multiple statistics and multiple grouping variable at the same time.

stats(soils, pH, Group, Contour, statistics=c("mean","median","sd"), Block, Depth)
#> # A tibble: 48 x 7
#>    Group Contour Block Depth  mean median    sd
#>    <fct> <fct>   <fct> <fct> <dbl>  <dbl> <dbl>
#>  1 1     Top     1     0-10   5.4    5.4     NA
#>  2 1     Top     2     0-10   5.65   5.65    NA
#>  3 1     Top     3     0-10   5.14   5.14    NA
#>  4 1     Top     4     0-10   5.14   5.14    NA
#>  5 2     Top     1     10-30  5.14   5.14    NA
#>  6 2     Top     2     10-30  5.1    5.1     NA
#>  7 2     Top     3     10-30  4.7    4.7     NA
#>  8 2     Top     4     10-30  4.46   4.46    NA
#>  9 3     Top     1     30-60  4.37   4.37    NA
#> 10 3     Top     2     30-60  4.39   4.39    NA
#> # … with 38 more rows
…
#custom statistic
my_n <- function(xs) length(xs)

#calling the custom statistic
stats(soils, pH, statistic = c("my_n"))
#> # A tibble: 1 x 3
#>       n  mean    sd
#>   <dbl> <dbl> <dbl>
#> 1    48  4.67  0.67

User-defined functioned can also be passed alongside other statistics:

stats(soils, pH, Group, Contour, statistics=c("my_n","mean"), Block, Depth)
#> # A tibble: 48 x 6
#>    Group Contour Block Depth  my_n  mean
#>    <fct> <fct>   <fct> <fct> <dbl> <dbl>
#>  1 1     Top     1     0-10      1  5.4 
#>  2 1     Top     2     0-10      1  5.65
#>  3 1     Top     3     0-10      1  5.14
#>  4 1     Top     4     0-10      1  5.14
#>  5 2     Top     1     10-30     1  5.14
#>  6 2     Top     2     10-30     1  5.1 
#>  7 2     Top     3     10-30     1  4.7 
#>  8 2     Top     4     10-30     1  4.46
#>  9 3     Top     1     30-60     1  4.37
#> 10 3     Top     2     30-60     1  4.39
#> # … with 38 more rows
…
